\relax 
\@writefile{toc}{\contentsline {section}{\numberline {1}Exercise}{1}\protected@file@percent }
\newlabel{eq:exp}{{1}{1}}
\@writefile{lof}{\contentsline {figure}{\numberline {1}{\ignorespaces Plot by gnuplot}}{2}\protected@file@percent }
\newlabel{fig:gpl}{{1}{2}}
\@writefile{lof}{\contentsline {figure}{\numberline {2}{\ignorespaces Plot by pyxplot}}{2}\protected@file@percent }
\newlabel{fig:pyx}{{2}{2}}
