# index 0: data
-2 0.2 0.2 0.2
-1.9375 0.213462 0.213462
-1.875 0.226923 0.226923
-1.8125 0.240385 0.240385
-1.75 0.253846 0.253846
-1.6875 0.267308 0.267308
-1.625 0.280769 0.280769
-1.5625 0.294231 0.294231
-1.5 0.307692 0.307692 0.307692
-1.4375 0.331731 0.331731
-1.375 0.355769 0.355769
-1.3125 0.379808 0.379808
-1.25 0.403846 0.403846
-1.1875 0.427885 0.427885
-1.125 0.451923 0.451923
-1.0625 0.475962 0.475962
-1 0.5 0.5 0.5
-0.9375 0.5375 0.5375
-0.875 0.575 0.575
-0.8125 0.6125 0.6125
-0.75 0.65 0.65
-0.6875 0.6875 0.6875
-0.625 0.725 0.725
-0.5625 0.7625 0.7625
-0.5 0.8 0.8 0.8
-0.4375 0.825 0.825
-0.375 0.85 0.85
-0.3125 0.875 0.875
-0.25 0.9 0.9
-0.1875 0.925 0.925
-0.125 0.95 0.95
-0.0625 0.975 0.975
0 1 1 1
0.0625 0.975 0.975
0.125 0.95 0.95
0.1875 0.925 0.925
0.25 0.9 0.9
0.3125 0.875 0.875
0.375 0.85 0.85
0.4375 0.825 0.825
0.5 0.8 0.8 0.8
0.5625 0.7625 0.7625
0.625 0.725 0.725
0.6875 0.6875 0.6875
0.75 0.65 0.65
0.8125 0.6125 0.6125
0.875 0.575 0.575
0.9375 0.5375 0.5375
1 0.5 0.5 0.5
1.0625 0.475962 0.475962
1.125 0.451923 0.451923
1.1875 0.427885 0.427885
1.25 0.403846 0.403846
1.3125 0.379808 0.379808
1.375 0.355769 0.355769
1.4375 0.331731 0.331731
1.5 0.307692 0.307692 0.307692
1.5625 0.294231 0.294231
1.625 0.280769 0.280769
1.6875 0.267308 0.267308
1.75 0.253846 0.253846
1.8125 0.240385 0.240385
1.875 0.226923 0.226923
1.9375 0.213462 0.213462
2 0.2 0.2 0.2


# index 1: integral
-2 0 0 0
-1.9375 0.0129207 0.0129207
-1.875 0.0266827 0.0266827
-1.8125 0.0412861 0.0412861
-1.75 0.0567308 0.0567308
-1.6875 0.0730168 0.0730168
-1.625 0.0901442 0.0901442
-1.5625 0.108113 0.108113
-1.5 0.126923 0.126923 0.124355
-1.4375 0.146905 0.146905
-1.375 0.168389 0.168389
-1.3125 0.191376 0.191376
-1.25 0.215865 0.215865
-1.1875 0.241857 0.241857
-1.125 0.269351 0.269351
-1.0625 0.298347 0.298347
-1 0.328846 0.328846 0.321751
-0.9375 0.361268 0.361268
-0.875 0.396034 0.396034
-0.8125 0.433143 0.433143
-0.75 0.472596 0.472596
-0.6875 0.514393 0.514393
-0.625 0.558534 0.558534
-0.5625 0.605018 0.605018
-0.5 0.653846 0.653846 0.643501
-0.4375 0.704627 0.704627
-0.375 0.756971 0.756971
-0.3125 0.810877 0.810877
-0.25 0.866346 0.866346
-0.1875 0.923377 0.923377
-0.125 0.981971 0.981971
-0.0625 1.04213 1.04213
0 1.10385 1.10385 1.10715
0.0625 1.16556 1.16556
0.125 1.22572 1.22572
0.1875 1.28431 1.28431
0.25 1.34135 1.34135
0.3125 1.39681 1.39681
0.375 1.45072 1.45072
0.4375 1.50306 1.50306
0.5 1.55385 1.55385 1.5708
0.5625 1.60267 1.60267
0.625 1.64916 1.64916
0.6875 1.6933 1.6933
0.75 1.7351 1.7351
0.8125 1.77455 1.77455
0.875 1.81166 1.81166
0.9375 1.84642 1.84642
1 1.87885 1.87885 1.89255
1.0625 1.90934 1.90934
1.125 1.93834 1.93834
1.1875 1.96584 1.96584
1.25 1.99183 1.99183
1.3125 2.01632 2.01632
1.375 2.0393 2.0393
1.4375 2.06079 2.06079
1.5 2.08077 2.08077 2.08994
1.5625 2.09958 2.09958
1.625 2.11755 2.11755
1.6875 2.13468 2.13468
1.75 2.15096 2.15096
1.8125 2.16641 2.16641
1.875 2.18101 2.18101
1.9375 2.19477 2.19477
2 2.20769 2.20769 2.2143


