<?xml version="1.0" encoding="utf-8"  standalone="no"?>
<svg 
 width="720" height="1080"
 viewBox="0 0 720 1080"
 xmlns="http://www.w3.org/2000/svg"
 xmlns:xlink="http://www.w3.org/1999/xlink"
>

<title>Gnuplot</title>
<desc>Produced by GNUPLOT 5.2 patchlevel 8 </desc>

<g id="gnuplot_canvas">

<rect x="0" y="0" width="720" height="1080" fill="#ffffff"/>
<defs>

	<circle id='gpDot' r='0.5' stroke-width='0.5' stroke='currentColor'/>
	<path id='gpPt0' stroke-width='0.222' stroke='currentColor' d='M-1,0 h2 M0,-1 v2'/>
	<path id='gpPt1' stroke-width='0.222' stroke='currentColor' d='M-1,-1 L1,1 M1,-1 L-1,1'/>
	<path id='gpPt2' stroke-width='0.222' stroke='currentColor' d='M-1,0 L1,0 M0,-1 L0,1 M-1,-1 L1,1 M-1,1 L1,-1'/>
	<rect id='gpPt3' stroke-width='0.222' stroke='currentColor' x='-1' y='-1' width='2' height='2'/>
	<rect id='gpPt4' stroke-width='0.222' stroke='currentColor' fill='currentColor' x='-1' y='-1' width='2' height='2'/>
	<circle id='gpPt5' stroke-width='0.222' stroke='currentColor' cx='0' cy='0' r='1'/>
	<use xlink:href='#gpPt5' id='gpPt6' fill='currentColor' stroke='none'/>
	<path id='gpPt7' stroke-width='0.222' stroke='currentColor' d='M0,-1.33 L-1.33,0.67 L1.33,0.67 z'/>
	<use xlink:href='#gpPt7' id='gpPt8' fill='currentColor' stroke='none'/>
	<use xlink:href='#gpPt7' id='gpPt9' stroke='currentColor' transform='rotate(180)'/>
	<use xlink:href='#gpPt9' id='gpPt10' fill='currentColor' stroke='none'/>
	<use xlink:href='#gpPt3' id='gpPt11' stroke='currentColor' transform='rotate(45)'/>
	<use xlink:href='#gpPt11' id='gpPt12' fill='currentColor' stroke='none'/>
	<path id='gpPt13' stroke-width='0.222' stroke='currentColor' d='M0,1.330 L1.265,0.411 L0.782,-1.067 L-0.782,-1.076 L-1.265,0.411 z'/>
	<use xlink:href='#gpPt13' id='gpPt14' fill='currentColor' stroke='none'/>
	<filter id='textbox' filterUnits='objectBoundingBox' x='0' y='0' height='1' width='1'>
	  <feFlood flood-color='#FFFFFF' flood-opacity='1' result='bgnd'/>
	  <feComposite in='SourceGraphic' in2='bgnd' operator='atop'/>
	</filter>
	<filter id='greybox' filterUnits='objectBoundingBox' x='0' y='0' height='1' width='1'>
	  <feFlood flood-color='lightgrey' flood-opacity='1' result='grey'/>
	  <feComposite in='SourceGraphic' in2='grey' operator='atop'/>
	</filter>
</defs>
<g fill="none" color="#FFFFFF" stroke="currentColor" stroke-width="1.00" stroke-linecap="butt" stroke-linejoin="miter">
	<g transform="translate(360.0,21.9)" stroke="none" fill="black" font-family="Arial" font-size="12.00"  text-anchor="middle">
		<text><tspan font-family="Times"  font-weight="bold" >Neural network curve fitting</tspan></text>
	</g>
</g>
<g fill="none" color="black" stroke="currentColor" stroke-width="1.00" stroke-linecap="butt" stroke-linejoin="miter">
</g>
<g fill="none" color="black" stroke="currentColor" stroke-width="1.00" stroke-linecap="butt" stroke-linejoin="miter">
	<path stroke='black'  d='M49.8,327.0 L40.8,327.0 M686.0,327.0 L695.0,327.0  '/>	<g transform="translate(32.5,330.9)" stroke="none" fill="black" font-family="Arial" font-size="12.00"  text-anchor="end">
		<text><tspan font-family="Arial" >-1</tspan></text>
	</g>
</g>
<g fill="none" color="black" stroke="currentColor" stroke-width="1.00" stroke-linecap="butt" stroke-linejoin="miter">
	<path stroke='black'  d='M49.8,301.5 L40.8,301.5 M686.0,301.5 L695.0,301.5  '/>	<g transform="translate(32.5,305.4)" stroke="none" fill="black" font-family="Arial" font-size="12.00"  text-anchor="end">
		<text><tspan font-family="Arial" >-0.8</tspan></text>
	</g>
</g>
<g fill="none" color="black" stroke="currentColor" stroke-width="1.00" stroke-linecap="butt" stroke-linejoin="miter">
	<path stroke='black'  d='M49.8,276.0 L40.8,276.0 M686.0,276.0 L695.0,276.0  '/>	<g transform="translate(32.5,279.9)" stroke="none" fill="black" font-family="Arial" font-size="12.00"  text-anchor="end">
		<text><tspan font-family="Arial" >-0.6</tspan></text>
	</g>
</g>
<g fill="none" color="black" stroke="currentColor" stroke-width="1.00" stroke-linecap="butt" stroke-linejoin="miter">
	<path stroke='black'  d='M49.8,250.5 L40.8,250.5 M686.0,250.5 L695.0,250.5  '/>	<g transform="translate(32.5,254.4)" stroke="none" fill="black" font-family="Arial" font-size="12.00"  text-anchor="end">
		<text><tspan font-family="Arial" >-0.4</tspan></text>
	</g>
</g>
<g fill="none" color="black" stroke="currentColor" stroke-width="1.00" stroke-linecap="butt" stroke-linejoin="miter">
	<path stroke='black'  d='M49.8,225.0 L40.8,225.0 M686.0,225.0 L695.0,225.0  '/>	<g transform="translate(32.5,228.9)" stroke="none" fill="black" font-family="Arial" font-size="12.00"  text-anchor="end">
		<text><tspan font-family="Arial" >-0.2</tspan></text>
	</g>
</g>
<g fill="none" color="black" stroke="currentColor" stroke-width="1.00" stroke-linecap="butt" stroke-linejoin="miter">
	<path stroke='black'  d='M49.8,199.5 L40.8,199.5 M686.0,199.5 L695.0,199.5  '/>	<g transform="translate(32.5,203.4)" stroke="none" fill="black" font-family="Arial" font-size="12.00"  text-anchor="end">
		<text><tspan font-family="Arial" > 0</tspan></text>
	</g>
</g>
<g fill="none" color="black" stroke="currentColor" stroke-width="1.00" stroke-linecap="butt" stroke-linejoin="miter">
	<path stroke='black'  d='M49.8,174.1 L40.8,174.1 M686.0,174.1 L695.0,174.1  '/>	<g transform="translate(32.5,178.0)" stroke="none" fill="black" font-family="Arial" font-size="12.00"  text-anchor="end">
		<text><tspan font-family="Arial" > 0.2</tspan></text>
	</g>
</g>
<g fill="none" color="black" stroke="currentColor" stroke-width="1.00" stroke-linecap="butt" stroke-linejoin="miter">
	<path stroke='black'  d='M49.8,148.6 L40.8,148.6 M686.0,148.6 L695.0,148.6  '/>	<g transform="translate(32.5,152.5)" stroke="none" fill="black" font-family="Arial" font-size="12.00"  text-anchor="end">
		<text><tspan font-family="Arial" > 0.4</tspan></text>
	</g>
</g>
<g fill="none" color="black" stroke="currentColor" stroke-width="1.00" stroke-linecap="butt" stroke-linejoin="miter">
	<path stroke='black'  d='M49.8,123.1 L40.8,123.1 M686.0,123.1 L695.0,123.1  '/>	<g transform="translate(32.5,127.0)" stroke="none" fill="black" font-family="Arial" font-size="12.00"  text-anchor="end">
		<text><tspan font-family="Arial" > 0.6</tspan></text>
	</g>
</g>
<g fill="none" color="black" stroke="currentColor" stroke-width="1.00" stroke-linecap="butt" stroke-linejoin="miter">
	<path stroke='black'  d='M49.8,97.6 L40.8,97.6 M686.0,97.6 L695.0,97.6  '/>	<g transform="translate(32.5,101.5)" stroke="none" fill="black" font-family="Arial" font-size="12.00"  text-anchor="end">
		<text><tspan font-family="Arial" > 0.8</tspan></text>
	</g>
</g>
<g fill="none" color="black" stroke="currentColor" stroke-width="1.00" stroke-linecap="butt" stroke-linejoin="miter">
	<path stroke='black'  d='M49.8,72.1 L40.8,72.1 M686.0,72.1 L695.0,72.1  '/>	<g transform="translate(32.5,76.0)" stroke="none" fill="black" font-family="Arial" font-size="12.00"  text-anchor="end">
		<text><tspan font-family="Arial" > 1</tspan></text>
	</g>
</g>
<g fill="none" color="black" stroke="currentColor" stroke-width="1.00" stroke-linecap="butt" stroke-linejoin="miter">
	<path stroke='black'  d='M49.8,327.0 L49.8,336.0 M49.8,72.1 L49.8,63.1  '/>	<g transform="translate(49.8,357.9)" stroke="none" fill="black" font-family="Arial" font-size="12.00"  text-anchor="middle">
		<text><tspan font-family="Arial" >-1</tspan></text>
	</g>
</g>
<g fill="none" color="black" stroke="currentColor" stroke-width="1.00" stroke-linecap="butt" stroke-linejoin="miter">
	<path stroke='black'  d='M208.9,327.0 L208.9,336.0 M208.9,72.1 L208.9,63.1  '/>	<g transform="translate(208.9,357.9)" stroke="none" fill="black" font-family="Arial" font-size="12.00"  text-anchor="middle">
		<text><tspan font-family="Arial" >-0.5</tspan></text>
	</g>
</g>
<g fill="none" color="black" stroke="currentColor" stroke-width="1.00" stroke-linecap="butt" stroke-linejoin="miter">
	<path stroke='black'  d='M367.9,327.0 L367.9,336.0 M367.9,72.1 L367.9,63.1  '/>	<g transform="translate(367.9,357.9)" stroke="none" fill="black" font-family="Arial" font-size="12.00"  text-anchor="middle">
		<text><tspan font-family="Arial" > 0</tspan></text>
	</g>
</g>
<g fill="none" color="black" stroke="currentColor" stroke-width="1.00" stroke-linecap="butt" stroke-linejoin="miter">
	<path stroke='black'  d='M527.0,327.0 L527.0,336.0 M527.0,72.1 L527.0,63.1  '/>	<g transform="translate(527.0,357.9)" stroke="none" fill="black" font-family="Arial" font-size="12.00"  text-anchor="middle">
		<text><tspan font-family="Arial" > 0.5</tspan></text>
	</g>
</g>
<g fill="none" color="black" stroke="currentColor" stroke-width="1.00" stroke-linecap="butt" stroke-linejoin="miter">
	<path stroke='black'  d='M686.0,327.0 L686.0,336.0 M686.0,72.1 L686.0,63.1  '/>	<g transform="translate(686.0,357.9)" stroke="none" fill="black" font-family="Arial" font-size="12.00"  text-anchor="middle">
		<text><tspan font-family="Arial" > 1</tspan></text>
	</g>
</g>
<g fill="none" color="black" stroke="currentColor" stroke-width="1.00" stroke-linecap="butt" stroke-linejoin="miter">
</g>
<g fill="none" color="black" stroke="currentColor" stroke-width="1.00" stroke-linecap="butt" stroke-linejoin="miter">
	<path stroke='black'  d='M49.8,72.1 L49.8,327.0 L686.0,327.0 L686.0,72.1 L49.8,72.1 Z  '/></g>
<g fill="none" color="black" stroke="currentColor" stroke-width="1.00" stroke-linecap="butt" stroke-linejoin="miter">
</g>
<g fill="none" color="black" stroke="currentColor" stroke-width="1.00" stroke-linecap="butt" stroke-linejoin="miter">
	<g transform="translate(367.9,49.0)" stroke="none" fill="black" font-family="Arial" font-size="12.00"  text-anchor="middle">
		<text><tspan font-family="Arial" >Function</tspan></text>
	</g>
</g>
<g fill="none" color="black" stroke="currentColor" stroke-width="1.00" stroke-linecap="butt" stroke-linejoin="miter">
</g>
	<g id="gnuplot_plot_1a" ><title>data cos(5*x-1)*exp(-x*x)</title>
<g fill="none" color="black" stroke="currentColor" stroke-width="1.00" stroke-linecap="butt" stroke-linejoin="miter">
	<g transform="translate(618.9,94.0)" stroke="none" fill="black" font-family="Arial" font-size="12.00"  text-anchor="end">
		<text><tspan font-family="Arial" >data cos(5*x-1)*exp(-x*x)</tspan></text>
	</g>
</g>
<g fill="none" color="black" stroke="currentColor" stroke-width="1.00" stroke-linecap="butt" stroke-linejoin="miter">
	<path stroke='rgb(148,   0, 211)'  d='M627.2,90.1 L669.4,90.1 M49.8,154.8 L54.8,154.4 L59.7,154.4 L64.7,154.8 L69.7,155.5 L74.7,156.7
		L79.6,158.2 L84.6,160.3 L89.6,162.7 L94.5,165.6 L99.5,168.9 L104.5,172.6 L109.4,176.7 L114.4,181.2
		L119.4,186.1 L124.4,191.4 L129.3,196.9 L134.3,202.7 L139.3,208.8 L144.2,215.1 L149.2,221.5 L154.2,228.0
		L159.1,234.6 L164.1,241.2 L169.1,247.7 L174.1,254.1 L179.0,260.4 L184.0,266.5 L189.0,272.4 L193.9,277.9
		L198.9,283.1 L203.9,287.9 L208.9,292.2 L213.8,296.0 L218.8,299.3 L223.8,302.1 L228.7,304.2 L233.7,305.7
		L238.7,306.5 L243.6,306.6 L248.6,306.0 L253.6,304.7 L258.6,302.6 L263.5,299.8 L268.5,296.3 L273.5,292.1
		L278.4,287.2 L283.4,281.5 L288.4,275.3 L293.3,268.4 L298.3,260.9 L303.3,252.9 L308.3,244.4 L313.2,235.5
		L318.2,226.2 L323.2,216.6 L328.1,206.9 L333.1,197.0 L338.1,187.0 L343.0,177.0 L348.0,167.1 L353.0,157.4
		L358.0,148.0 L362.9,138.8 L367.9,130.1 L372.9,121.9 L377.8,114.1 L382.8,107.0 L387.8,100.5 L392.8,94.8
		L397.7,89.7 L402.7,85.5 L407.7,82.0 L412.6,79.4 L417.6,77.6 L422.6,76.7 L427.5,76.6 L432.5,77.3
		L437.5,78.8 L442.5,81.1 L447.4,84.1 L452.4,87.8 L457.4,92.2 L462.3,97.3 L467.3,102.9 L472.3,109.0
		L477.2,115.5 L482.2,122.4 L487.2,129.7 L492.2,137.2 L497.1,145.0 L502.1,152.8 L507.1,160.8 L512.0,168.8
		L517.0,176.7 L522.0,184.5 L527.0,192.2 L531.9,199.7 L536.9,207.0 L541.9,214.0 L546.8,220.6 L551.8,226.9
		L556.8,232.8 L561.7,238.3 L566.7,243.4 L571.7,248.0 L576.7,252.1 L581.6,255.7 L586.6,258.9 L591.6,261.6
		L596.5,263.7 L601.5,265.4 L606.5,266.6 L611.4,267.3 L616.4,267.5 L621.4,267.2 L626.4,266.5 L631.3,265.3
		L636.3,263.7 L641.3,261.7 L646.2,259.4 L651.2,256.6 L656.2,253.5 L661.1,250.1 L666.1,246.3 L671.1,242.3
		L676.1,238.0 L681.0,233.4 L686.0,228.7  '/></g>
	</g>
	<g id="gnuplot_plot_2a" ><title>fit</title>
<g fill="none" color="black" stroke="currentColor" stroke-width="1.00" stroke-linecap="butt" stroke-linejoin="miter">
	<g transform="translate(618.9,112.0)" stroke="none" fill="black" font-family="Arial" font-size="12.00"  text-anchor="end">
		<text><tspan font-family="Arial" >fit</tspan></text>
	</g>
</g>
<g fill="none" color="black" stroke="currentColor" stroke-width="1.00" stroke-linecap="butt" stroke-linejoin="miter">
	<use xlink:href='#gpPt5' transform='translate(49.8,154.5) scale(4.50)' color='rgb(  0, 158, 115)'/>
	<use xlink:href='#gpPt5' transform='translate(83.3,160.1) scale(4.50)' color='rgb(  0, 158, 115)'/>
	<use xlink:href='#gpPt5' transform='translate(116.8,183.6) scale(4.50)' color='rgb(  0, 158, 115)'/>
	<use xlink:href='#gpPt5' transform='translate(150.3,222.5) scale(4.50)' color='rgb(  0, 158, 115)'/>
	<use xlink:href='#gpPt5' transform='translate(183.7,266.1) scale(4.50)' color='rgb(  0, 158, 115)'/>
	<use xlink:href='#gpPt5' transform='translate(217.2,298.8) scale(4.50)' color='rgb(  0, 158, 115)'/>
	<use xlink:href='#gpPt5' transform='translate(250.7,305.9) scale(4.50)' color='rgb(  0, 158, 115)'/>
	<use xlink:href='#gpPt5' transform='translate(284.2,280.2) scale(4.50)' color='rgb(  0, 158, 115)'/>
	<use xlink:href='#gpPt5' transform='translate(317.7,226.5) scale(4.50)' color='rgb(  0, 158, 115)'/>
	<use xlink:href='#gpPt5' transform='translate(351.2,161.1) scale(4.50)' color='rgb(  0, 158, 115)'/>
	<use xlink:href='#gpPt5' transform='translate(384.6,105.4) scale(4.50)' color='rgb(  0, 158, 115)'/>
	<use xlink:href='#gpPt5' transform='translate(418.1,78.0) scale(4.50)' color='rgb(  0, 158, 115)'/>
	<use xlink:href='#gpPt5' transform='translate(451.6,86.5) scale(4.50)' color='rgb(  0, 158, 115)'/>
	<use xlink:href='#gpPt5' transform='translate(485.1,125.5) scale(4.50)' color='rgb(  0, 158, 115)'/>
	<use xlink:href='#gpPt5' transform='translate(518.6,179.1) scale(4.50)' color='rgb(  0, 158, 115)'/>
	<use xlink:href='#gpPt5' transform='translate(552.1,228.6) scale(4.50)' color='rgb(  0, 158, 115)'/>
	<use xlink:href='#gpPt5' transform='translate(585.5,259.5) scale(4.50)' color='rgb(  0, 158, 115)'/>
	<use xlink:href='#gpPt5' transform='translate(619.0,266.6) scale(4.50)' color='rgb(  0, 158, 115)'/>
	<use xlink:href='#gpPt5' transform='translate(652.5,253.7) scale(4.50)' color='rgb(  0, 158, 115)'/>
	<use xlink:href='#gpPt5' transform='translate(686.0,230.2) scale(4.50)' color='rgb(  0, 158, 115)'/>
	<use xlink:href='#gpPt5' transform='translate(648.3,108.1) scale(4.50)' color='rgb(  0, 158, 115)'/>
</g>
	</g>
<g fill="none" color="#FFFFFF" stroke="rgb(  0, 158, 115)" stroke-width="2.00" stroke-linecap="butt" stroke-linejoin="miter">
</g>
<g fill="none" color="black" stroke="currentColor" stroke-width="2.00" stroke-linecap="butt" stroke-linejoin="miter">
</g>
<g fill="none" color="black" stroke="black" stroke-width="1.00" stroke-linecap="butt" stroke-linejoin="miter">
</g>
<g fill="none" color="black" stroke="currentColor" stroke-width="1.00" stroke-linecap="butt" stroke-linejoin="miter">
	<path stroke='black'  d='M49.8,72.1 L49.8,327.0 L686.0,327.0 L686.0,72.1 L49.8,72.1 Z  '/></g>
<g fill="none" color="black" stroke="currentColor" stroke-width="1.00" stroke-linecap="butt" stroke-linejoin="miter">
</g>
<g fill="none" color="black" stroke="currentColor" stroke-width="1.00" stroke-linecap="butt" stroke-linejoin="miter">
	<path stroke='black'  d='M49.8,681.0 L40.8,681.0 M686.0,681.0 L695.0,681.0  '/>	<g transform="translate(32.5,684.9)" stroke="none" fill="black" font-family="Arial" font-size="12.00"  text-anchor="end">
		<text><tspan font-family="Arial" >-5</tspan></text>
	</g>
</g>
<g fill="none" color="black" stroke="currentColor" stroke-width="1.00" stroke-linecap="butt" stroke-linejoin="miter">
	<path stroke='black'  d='M49.8,657.8 L40.8,657.8 M686.0,657.8 L695.0,657.8  '/>	<g transform="translate(32.5,661.7)" stroke="none" fill="black" font-family="Arial" font-size="12.00"  text-anchor="end">
		<text><tspan font-family="Arial" >-4</tspan></text>
	</g>
</g>
<g fill="none" color="black" stroke="currentColor" stroke-width="1.00" stroke-linecap="butt" stroke-linejoin="miter">
	<path stroke='black'  d='M49.8,634.7 L40.8,634.7 M686.0,634.7 L695.0,634.7  '/>	<g transform="translate(32.5,638.6)" stroke="none" fill="black" font-family="Arial" font-size="12.00"  text-anchor="end">
		<text><tspan font-family="Arial" >-3</tspan></text>
	</g>
</g>
<g fill="none" color="black" stroke="currentColor" stroke-width="1.00" stroke-linecap="butt" stroke-linejoin="miter">
	<path stroke='black'  d='M49.8,611.5 L40.8,611.5 M686.0,611.5 L695.0,611.5  '/>	<g transform="translate(32.5,615.4)" stroke="none" fill="black" font-family="Arial" font-size="12.00"  text-anchor="end">
		<text><tspan font-family="Arial" >-2</tspan></text>
	</g>
</g>
<g fill="none" color="black" stroke="currentColor" stroke-width="1.00" stroke-linecap="butt" stroke-linejoin="miter">
	<path stroke='black'  d='M49.8,588.3 L40.8,588.3 M686.0,588.3 L695.0,588.3  '/>	<g transform="translate(32.5,592.2)" stroke="none" fill="black" font-family="Arial" font-size="12.00"  text-anchor="end">
		<text><tspan font-family="Arial" >-1</tspan></text>
	</g>
</g>
<g fill="none" color="black" stroke="currentColor" stroke-width="1.00" stroke-linecap="butt" stroke-linejoin="miter">
	<path stroke='black'  d='M49.8,565.1 L40.8,565.1 M686.0,565.1 L695.0,565.1  '/>	<g transform="translate(32.5,569.0)" stroke="none" fill="black" font-family="Arial" font-size="12.00"  text-anchor="end">
		<text><tspan font-family="Arial" > 0</tspan></text>
	</g>
</g>
<g fill="none" color="black" stroke="currentColor" stroke-width="1.00" stroke-linecap="butt" stroke-linejoin="miter">
	<path stroke='black'  d='M49.8,542.0 L40.8,542.0 M686.0,542.0 L695.0,542.0  '/>	<g transform="translate(32.5,545.9)" stroke="none" fill="black" font-family="Arial" font-size="12.00"  text-anchor="end">
		<text><tspan font-family="Arial" > 1</tspan></text>
	</g>
</g>
<g fill="none" color="black" stroke="currentColor" stroke-width="1.00" stroke-linecap="butt" stroke-linejoin="miter">
	<path stroke='black'  d='M49.8,518.8 L40.8,518.8 M686.0,518.8 L695.0,518.8  '/>	<g transform="translate(32.5,522.7)" stroke="none" fill="black" font-family="Arial" font-size="12.00"  text-anchor="end">
		<text><tspan font-family="Arial" > 2</tspan></text>
	</g>
</g>
<g fill="none" color="black" stroke="currentColor" stroke-width="1.00" stroke-linecap="butt" stroke-linejoin="miter">
	<path stroke='black'  d='M49.8,495.6 L40.8,495.6 M686.0,495.6 L695.0,495.6  '/>	<g transform="translate(32.5,499.5)" stroke="none" fill="black" font-family="Arial" font-size="12.00"  text-anchor="end">
		<text><tspan font-family="Arial" > 3</tspan></text>
	</g>
</g>
<g fill="none" color="black" stroke="currentColor" stroke-width="1.00" stroke-linecap="butt" stroke-linejoin="miter">
	<path stroke='black'  d='M49.8,472.4 L40.8,472.4 M686.0,472.4 L695.0,472.4  '/>	<g transform="translate(32.5,476.3)" stroke="none" fill="black" font-family="Arial" font-size="12.00"  text-anchor="end">
		<text><tspan font-family="Arial" > 4</tspan></text>
	</g>
</g>
<g fill="none" color="black" stroke="currentColor" stroke-width="1.00" stroke-linecap="butt" stroke-linejoin="miter">
	<path stroke='black'  d='M49.8,449.3 L40.8,449.3 M686.0,449.3 L695.0,449.3  '/>	<g transform="translate(32.5,453.2)" stroke="none" fill="black" font-family="Arial" font-size="12.00"  text-anchor="end">
		<text><tspan font-family="Arial" > 5</tspan></text>
	</g>
</g>
<g fill="none" color="black" stroke="currentColor" stroke-width="1.00" stroke-linecap="butt" stroke-linejoin="miter">
	<path stroke='black'  d='M49.8,426.1 L40.8,426.1 M686.0,426.1 L695.0,426.1  '/>	<g transform="translate(32.5,430.0)" stroke="none" fill="black" font-family="Arial" font-size="12.00"  text-anchor="end">
		<text><tspan font-family="Arial" > 6</tspan></text>
	</g>
</g>
<g fill="none" color="black" stroke="currentColor" stroke-width="1.00" stroke-linecap="butt" stroke-linejoin="miter">
	<path stroke='black'  d='M49.8,681.0 L49.8,690.0 M49.8,426.1 L49.8,417.1  '/>	<g transform="translate(49.8,711.9)" stroke="none" fill="black" font-family="Arial" font-size="12.00"  text-anchor="middle">
		<text><tspan font-family="Arial" >-1</tspan></text>
	</g>
</g>
<g fill="none" color="black" stroke="currentColor" stroke-width="1.00" stroke-linecap="butt" stroke-linejoin="miter">
	<path stroke='black'  d='M208.9,681.0 L208.9,690.0 M208.9,426.1 L208.9,417.1  '/>	<g transform="translate(208.9,711.9)" stroke="none" fill="black" font-family="Arial" font-size="12.00"  text-anchor="middle">
		<text><tspan font-family="Arial" >-0.5</tspan></text>
	</g>
</g>
<g fill="none" color="black" stroke="currentColor" stroke-width="1.00" stroke-linecap="butt" stroke-linejoin="miter">
	<path stroke='black'  d='M367.9,681.0 L367.9,690.0 M367.9,426.1 L367.9,417.1  '/>	<g transform="translate(367.9,711.9)" stroke="none" fill="black" font-family="Arial" font-size="12.00"  text-anchor="middle">
		<text><tspan font-family="Arial" > 0</tspan></text>
	</g>
</g>
<g fill="none" color="black" stroke="currentColor" stroke-width="1.00" stroke-linecap="butt" stroke-linejoin="miter">
	<path stroke='black'  d='M527.0,681.0 L527.0,690.0 M527.0,426.1 L527.0,417.1  '/>	<g transform="translate(527.0,711.9)" stroke="none" fill="black" font-family="Arial" font-size="12.00"  text-anchor="middle">
		<text><tspan font-family="Arial" > 0.5</tspan></text>
	</g>
</g>
<g fill="none" color="black" stroke="currentColor" stroke-width="1.00" stroke-linecap="butt" stroke-linejoin="miter">
	<path stroke='black'  d='M686.0,681.0 L686.0,690.0 M686.0,426.1 L686.0,417.1  '/>	<g transform="translate(686.0,711.9)" stroke="none" fill="black" font-family="Arial" font-size="12.00"  text-anchor="middle">
		<text><tspan font-family="Arial" > 1</tspan></text>
	</g>
</g>
<g fill="none" color="black" stroke="currentColor" stroke-width="1.00" stroke-linecap="butt" stroke-linejoin="miter">
</g>
<g fill="none" color="black" stroke="currentColor" stroke-width="1.00" stroke-linecap="butt" stroke-linejoin="miter">
	<path stroke='black'  d='M49.8,426.1 L49.8,681.0 L686.0,681.0 L686.0,426.1 L49.8,426.1 Z  '/></g>
<g fill="none" color="black" stroke="currentColor" stroke-width="1.00" stroke-linecap="butt" stroke-linejoin="miter">
	<g transform="translate(4.5,553.6) rotate(270)" stroke="none" fill="black" font-family="Arial" font-size="12.00"  text-anchor="middle">
		<text><tspan font-family="Arial" >y</tspan></text>
	</g>
</g>
<g fill="none" color="black" stroke="currentColor" stroke-width="1.00" stroke-linecap="butt" stroke-linejoin="miter">
	<g transform="translate(367.9,403.0)" stroke="none" fill="black" font-family="Arial" font-size="12.00"  text-anchor="middle">
		<text><tspan font-family="Arial" >Derivative</tspan></text>
	</g>
</g>
<g fill="none" color="black" stroke="currentColor" stroke-width="1.00" stroke-linecap="butt" stroke-linejoin="miter">
</g>
	<g id="gnuplot_plot_1b" ><title>ann derivative</title>
<g fill="none" color="black" stroke="currentColor" stroke-width="1.00" stroke-linecap="butt" stroke-linejoin="miter">
	<g transform="translate(618.9,448.0)" stroke="none" fill="black" font-family="Arial" font-size="12.00"  text-anchor="end">
		<text><tspan font-family="Arial" >ann derivative</tspan></text>
	</g>
</g>
<g fill="none" color="black" stroke="currentColor" stroke-width="1.00" stroke-linecap="butt" stroke-linejoin="miter">
	<path stroke='rgb(148,   0, 211)'  d='M627.2,444.1 L669.4,444.1 M49.8,558.8 L54.8,562.8 L59.7,567.1 L64.7,571.5 L69.7,576.2 L74.7,581.0
		L79.6,586.0 L84.6,591.0 L89.6,596.0 L94.5,601.1 L99.5,606.0 L104.5,610.9 L109.4,615.5 L114.4,619.9
		L119.4,624.1 L124.4,627.9 L129.3,631.3 L134.3,634.4 L139.3,636.9 L144.2,639.0 L149.2,640.5 L154.2,641.4
		L159.1,641.8 L164.1,641.6 L169.1,640.8 L174.1,639.4 L179.0,637.3 L184.0,634.7 L189.0,631.4 L193.9,627.6
		L198.9,623.2 L203.9,618.2 L208.9,612.7 L213.8,606.7 L218.8,600.3 L223.8,593.4 L228.7,586.1 L233.7,578.5
		L238.7,570.6 L243.6,562.4 L248.6,554.0 L253.6,545.6 L258.6,537.0 L263.5,528.5 L268.5,520.0 L273.5,511.7
		L278.4,503.6 L283.4,495.8 L288.4,488.4 L293.3,481.4 L298.3,474.9 L303.3,469.0 L308.3,463.8 L313.2,459.3
		L318.2,455.5 L323.2,452.5 L328.1,450.4 L333.1,449.2 L338.1,448.9 L343.0,449.5 L348.0,451.1 L353.0,453.5
		L358.0,456.9 L362.9,461.1 L367.9,466.2 L372.9,472.0 L377.8,478.6 L382.8,485.9 L387.8,493.8 L392.8,502.2
		L397.7,511.1 L402.7,520.3 L407.7,529.8 L412.6,539.4 L417.6,549.2 L422.6,558.9 L427.5,568.6 L432.5,578.1
		L437.5,587.3 L442.5,596.2 L447.4,604.6 L452.4,612.6 L457.4,620.1 L462.3,627.0 L467.3,633.2 L472.3,638.8
		L477.2,643.7 L482.2,647.9 L487.2,651.3 L492.2,654.1 L497.1,656.1 L502.1,657.3 L507.1,657.9 L512.0,657.8
		L517.0,657.0 L522.0,655.6 L527.0,653.6 L531.9,651.1 L536.9,648.0 L541.9,644.5 L546.8,640.5 L551.8,636.2
		L556.8,631.5 L561.7,626.6 L566.7,621.4 L571.7,616.0 L576.7,610.4 L581.6,604.8 L586.6,599.0 L591.6,593.2
		L596.5,587.4 L601.5,581.7 L606.5,575.9 L611.4,570.3 L616.4,564.8 L621.4,559.4 L626.4,554.2 L631.3,549.1
		L636.3,544.3 L641.3,539.6 L646.2,535.2 L651.2,531.0 L656.2,527.0 L661.1,523.3 L666.1,519.8 L671.1,516.6
		L676.1,513.6 L681.0,510.9 L686.0,508.5  '/></g>
	</g>
	<g id="gnuplot_plot_2b" ><title>gsl derivative</title>
<g fill="none" color="black" stroke="currentColor" stroke-width="1.00" stroke-linecap="butt" stroke-linejoin="miter">
	<g transform="translate(618.9,466.0)" stroke="none" fill="black" font-family="Arial" font-size="12.00"  text-anchor="end">
		<text><tspan font-family="Arial" >gsl derivative</tspan></text>
	</g>
</g>
<g fill="none" color="black" stroke="currentColor" stroke-width="1.00" stroke-linecap="butt" stroke-linejoin="miter">
	<use xlink:href='#gpPt5' transform='translate(49.8,560.7) scale(4.50)' color='rgb(  0, 158, 115)'/>
	<use xlink:href='#gpPt5' transform='translate(54.8,564.5) scale(4.50)' color='rgb(  0, 158, 115)'/>
	<use xlink:href='#gpPt5' transform='translate(59.7,568.5) scale(4.50)' color='rgb(  0, 158, 115)'/>
	<use xlink:href='#gpPt5' transform='translate(64.7,572.8) scale(4.50)' color='rgb(  0, 158, 115)'/>
	<use xlink:href='#gpPt5' transform='translate(69.7,577.2) scale(4.50)' color='rgb(  0, 158, 115)'/>
	<use xlink:href='#gpPt5' transform='translate(74.7,581.8) scale(4.50)' color='rgb(  0, 158, 115)'/>
	<use xlink:href='#gpPt5' transform='translate(79.6,586.5) scale(4.50)' color='rgb(  0, 158, 115)'/>
	<use xlink:href='#gpPt5' transform='translate(84.6,591.2) scale(4.50)' color='rgb(  0, 158, 115)'/>
	<use xlink:href='#gpPt5' transform='translate(89.6,596.0) scale(4.50)' color='rgb(  0, 158, 115)'/>
	<use xlink:href='#gpPt5' transform='translate(94.5,600.8) scale(4.50)' color='rgb(  0, 158, 115)'/>
	<use xlink:href='#gpPt5' transform='translate(99.5,605.6) scale(4.50)' color='rgb(  0, 158, 115)'/>
	<use xlink:href='#gpPt5' transform='translate(104.5,610.2) scale(4.50)' color='rgb(  0, 158, 115)'/>
	<use xlink:href='#gpPt5' transform='translate(109.4,614.7) scale(4.50)' color='rgb(  0, 158, 115)'/>
	<use xlink:href='#gpPt5' transform='translate(114.4,619.0) scale(4.50)' color='rgb(  0, 158, 115)'/>
	<use xlink:href='#gpPt5' transform='translate(119.4,623.1) scale(4.50)' color='rgb(  0, 158, 115)'/>
	<use xlink:href='#gpPt5' transform='translate(124.4,626.9) scale(4.50)' color='rgb(  0, 158, 115)'/>
	<use xlink:href='#gpPt5' transform='translate(129.3,630.4) scale(4.50)' color='rgb(  0, 158, 115)'/>
	<use xlink:href='#gpPt5' transform='translate(134.3,633.5) scale(4.50)' color='rgb(  0, 158, 115)'/>
	<use xlink:href='#gpPt5' transform='translate(139.3,636.1) scale(4.50)' color='rgb(  0, 158, 115)'/>
	<use xlink:href='#gpPt5' transform='translate(144.2,638.3) scale(4.50)' color='rgb(  0, 158, 115)'/>
	<use xlink:href='#gpPt5' transform='translate(149.2,640.0) scale(4.50)' color='rgb(  0, 158, 115)'/>
	<use xlink:href='#gpPt5' transform='translate(154.2,641.2) scale(4.50)' color='rgb(  0, 158, 115)'/>
	<use xlink:href='#gpPt5' transform='translate(159.1,641.8) scale(4.50)' color='rgb(  0, 158, 115)'/>
	<use xlink:href='#gpPt5' transform='translate(164.1,641.8) scale(4.50)' color='rgb(  0, 158, 115)'/>
	<use xlink:href='#gpPt5' transform='translate(169.1,641.3) scale(4.50)' color='rgb(  0, 158, 115)'/>
	<use xlink:href='#gpPt5' transform='translate(174.1,640.0) scale(4.50)' color='rgb(  0, 158, 115)'/>
	<use xlink:href='#gpPt5' transform='translate(179.0,638.2) scale(4.50)' color='rgb(  0, 158, 115)'/>
	<use xlink:href='#gpPt5' transform='translate(184.0,635.7) scale(4.50)' color='rgb(  0, 158, 115)'/>
	<use xlink:href='#gpPt5' transform='translate(189.0,632.5) scale(4.50)' color='rgb(  0, 158, 115)'/>
	<use xlink:href='#gpPt5' transform='translate(193.9,628.7) scale(4.50)' color='rgb(  0, 158, 115)'/>
	<use xlink:href='#gpPt5' transform='translate(198.9,624.3) scale(4.50)' color='rgb(  0, 158, 115)'/>
	<use xlink:href='#gpPt5' transform='translate(203.9,619.3) scale(4.50)' color='rgb(  0, 158, 115)'/>
	<use xlink:href='#gpPt5' transform='translate(208.9,613.7) scale(4.50)' color='rgb(  0, 158, 115)'/>
	<use xlink:href='#gpPt5' transform='translate(213.8,607.5) scale(4.50)' color='rgb(  0, 158, 115)'/>
	<use xlink:href='#gpPt5' transform='translate(218.8,600.9) scale(4.50)' color='rgb(  0, 158, 115)'/>
	<use xlink:href='#gpPt5' transform='translate(223.8,593.8) scale(4.50)' color='rgb(  0, 158, 115)'/>
	<use xlink:href='#gpPt5' transform='translate(228.7,586.3) scale(4.50)' color='rgb(  0, 158, 115)'/>
	<use xlink:href='#gpPt5' transform='translate(233.7,578.4) scale(4.50)' color='rgb(  0, 158, 115)'/>
	<use xlink:href='#gpPt5' transform='translate(238.7,570.2) scale(4.50)' color='rgb(  0, 158, 115)'/>
	<use xlink:href='#gpPt5' transform='translate(243.6,561.8) scale(4.50)' color='rgb(  0, 158, 115)'/>
	<use xlink:href='#gpPt5' transform='translate(248.6,553.2) scale(4.50)' color='rgb(  0, 158, 115)'/>
	<use xlink:href='#gpPt5' transform='translate(253.6,544.5) scale(4.50)' color='rgb(  0, 158, 115)'/>
	<use xlink:href='#gpPt5' transform='translate(258.6,535.8) scale(4.50)' color='rgb(  0, 158, 115)'/>
	<use xlink:href='#gpPt5' transform='translate(263.5,527.1) scale(4.50)' color='rgb(  0, 158, 115)'/>
	<use xlink:href='#gpPt5' transform='translate(268.5,518.6) scale(4.50)' color='rgb(  0, 158, 115)'/>
	<use xlink:href='#gpPt5' transform='translate(273.5,510.3) scale(4.50)' color='rgb(  0, 158, 115)'/>
	<use xlink:href='#gpPt5' transform='translate(278.4,502.3) scale(4.50)' color='rgb(  0, 158, 115)'/>
	<use xlink:href='#gpPt5' transform='translate(283.4,494.6) scale(4.50)' color='rgb(  0, 158, 115)'/>
	<use xlink:href='#gpPt5' transform='translate(288.4,487.3) scale(4.50)' color='rgb(  0, 158, 115)'/>
	<use xlink:href='#gpPt5' transform='translate(293.3,480.5) scale(4.50)' color='rgb(  0, 158, 115)'/>
	<use xlink:href='#gpPt5' transform='translate(298.3,474.3) scale(4.50)' color='rgb(  0, 158, 115)'/>
	<use xlink:href='#gpPt5' transform='translate(303.3,468.7) scale(4.50)' color='rgb(  0, 158, 115)'/>
	<use xlink:href='#gpPt5' transform='translate(308.3,463.7) scale(4.50)' color='rgb(  0, 158, 115)'/>
	<use xlink:href='#gpPt5' transform='translate(313.2,459.5) scale(4.50)' color='rgb(  0, 158, 115)'/>
	<use xlink:href='#gpPt5' transform='translate(318.2,456.0) scale(4.50)' color='rgb(  0, 158, 115)'/>
	<use xlink:href='#gpPt5' transform='translate(323.2,453.4) scale(4.50)' color='rgb(  0, 158, 115)'/>
	<use xlink:href='#gpPt5' transform='translate(328.1,451.5) scale(4.50)' color='rgb(  0, 158, 115)'/>
	<use xlink:href='#gpPt5' transform='translate(333.1,450.6) scale(4.50)' color='rgb(  0, 158, 115)'/>
	<use xlink:href='#gpPt5' transform='translate(338.1,450.4) scale(4.50)' color='rgb(  0, 158, 115)'/>
	<use xlink:href='#gpPt5' transform='translate(343.0,451.2) scale(4.50)' color='rgb(  0, 158, 115)'/>
	<use xlink:href='#gpPt5' transform='translate(348.0,452.8) scale(4.50)' color='rgb(  0, 158, 115)'/>
	<use xlink:href='#gpPt5' transform='translate(353.0,455.3) scale(4.50)' color='rgb(  0, 158, 115)'/>
	<use xlink:href='#gpPt5' transform='translate(358.0,458.6) scale(4.50)' color='rgb(  0, 158, 115)'/>
	<use xlink:href='#gpPt5' transform='translate(362.9,462.7) scale(4.50)' color='rgb(  0, 158, 115)'/>
	<use xlink:href='#gpPt5' transform='translate(367.9,467.6) scale(4.50)' color='rgb(  0, 158, 115)'/>
	<use xlink:href='#gpPt5' transform='translate(372.9,473.3) scale(4.50)' color='rgb(  0, 158, 115)'/>
	<use xlink:href='#gpPt5' transform='translate(377.8,479.6) scale(4.50)' color='rgb(  0, 158, 115)'/>
	<use xlink:href='#gpPt5' transform='translate(382.8,486.6) scale(4.50)' color='rgb(  0, 158, 115)'/>
	<use xlink:href='#gpPt5' transform='translate(387.8,494.1) scale(4.50)' color='rgb(  0, 158, 115)'/>
	<use xlink:href='#gpPt5' transform='translate(392.8,502.2) scale(4.50)' color='rgb(  0, 158, 115)'/>
	<use xlink:href='#gpPt5' transform='translate(397.7,510.7) scale(4.50)' color='rgb(  0, 158, 115)'/>
	<use xlink:href='#gpPt5' transform='translate(402.7,519.5) scale(4.50)' color='rgb(  0, 158, 115)'/>
	<use xlink:href='#gpPt5' transform='translate(407.7,528.7) scale(4.50)' color='rgb(  0, 158, 115)'/>
	<use xlink:href='#gpPt5' transform='translate(412.6,538.0) scale(4.50)' color='rgb(  0, 158, 115)'/>
	<use xlink:href='#gpPt5' transform='translate(417.6,547.5) scale(4.50)' color='rgb(  0, 158, 115)'/>
	<use xlink:href='#gpPt5' transform='translate(422.6,557.0) scale(4.50)' color='rgb(  0, 158, 115)'/>
	<use xlink:href='#gpPt5' transform='translate(427.5,566.5) scale(4.50)' color='rgb(  0, 158, 115)'/>
	<use xlink:href='#gpPt5' transform='translate(432.5,575.9) scale(4.50)' color='rgb(  0, 158, 115)'/>
	<use xlink:href='#gpPt5' transform='translate(437.5,585.1) scale(4.50)' color='rgb(  0, 158, 115)'/>
	<use xlink:href='#gpPt5' transform='translate(442.5,594.0) scale(4.50)' color='rgb(  0, 158, 115)'/>
	<use xlink:href='#gpPt5' transform='translate(447.4,602.6) scale(4.50)' color='rgb(  0, 158, 115)'/>
	<use xlink:href='#gpPt5' transform='translate(452.4,610.8) scale(4.50)' color='rgb(  0, 158, 115)'/>
	<use xlink:href='#gpPt5' transform='translate(457.4,618.5) scale(4.50)' color='rgb(  0, 158, 115)'/>
	<use xlink:href='#gpPt5' transform='translate(462.3,625.7) scale(4.50)' color='rgb(  0, 158, 115)'/>
	<use xlink:href='#gpPt5' transform='translate(467.3,632.3) scale(4.50)' color='rgb(  0, 158, 115)'/>
	<use xlink:href='#gpPt5' transform='translate(472.3,638.3) scale(4.50)' color='rgb(  0, 158, 115)'/>
	<use xlink:href='#gpPt5' transform='translate(477.2,643.6) scale(4.50)' color='rgb(  0, 158, 115)'/>
	<use xlink:href='#gpPt5' transform='translate(482.2,648.2) scale(4.50)' color='rgb(  0, 158, 115)'/>
	<use xlink:href='#gpPt5' transform='translate(487.2,652.1) scale(4.50)' color='rgb(  0, 158, 115)'/>
	<use xlink:href='#gpPt5' transform='translate(492.2,655.2) scale(4.50)' color='rgb(  0, 158, 115)'/>
	<use xlink:href='#gpPt5' transform='translate(497.1,657.6) scale(4.50)' color='rgb(  0, 158, 115)'/>
	<use xlink:href='#gpPt5' transform='translate(502.1,659.3) scale(4.50)' color='rgb(  0, 158, 115)'/>
	<use xlink:href='#gpPt5' transform='translate(507.1,660.1) scale(4.50)' color='rgb(  0, 158, 115)'/>
	<use xlink:href='#gpPt5' transform='translate(512.0,660.3) scale(4.50)' color='rgb(  0, 158, 115)'/>
	<use xlink:href='#gpPt5' transform='translate(517.0,659.7) scale(4.50)' color='rgb(  0, 158, 115)'/>
	<use xlink:href='#gpPt5' transform='translate(522.0,658.4) scale(4.50)' color='rgb(  0, 158, 115)'/>
	<use xlink:href='#gpPt5' transform='translate(527.0,656.4) scale(4.50)' color='rgb(  0, 158, 115)'/>
	<use xlink:href='#gpPt5' transform='translate(531.9,653.8) scale(4.50)' color='rgb(  0, 158, 115)'/>
	<use xlink:href='#gpPt5' transform='translate(536.9,650.6) scale(4.50)' color='rgb(  0, 158, 115)'/>
	<use xlink:href='#gpPt5' transform='translate(541.9,646.8) scale(4.50)' color='rgb(  0, 158, 115)'/>
	<use xlink:href='#gpPt5' transform='translate(546.8,642.6) scale(4.50)' color='rgb(  0, 158, 115)'/>
	<use xlink:href='#gpPt5' transform='translate(551.8,637.8) scale(4.50)' color='rgb(  0, 158, 115)'/>
	<use xlink:href='#gpPt5' transform='translate(556.8,632.7) scale(4.50)' color='rgb(  0, 158, 115)'/>
	<use xlink:href='#gpPt5' transform='translate(561.7,627.2) scale(4.50)' color='rgb(  0, 158, 115)'/>
	<use xlink:href='#gpPt5' transform='translate(566.7,621.5) scale(4.50)' color='rgb(  0, 158, 115)'/>
	<use xlink:href='#gpPt5' transform='translate(571.7,615.5) scale(4.50)' color='rgb(  0, 158, 115)'/>
	<use xlink:href='#gpPt5' transform='translate(576.7,609.3) scale(4.50)' color='rgb(  0, 158, 115)'/>
	<use xlink:href='#gpPt5' transform='translate(581.6,603.1) scale(4.50)' color='rgb(  0, 158, 115)'/>
	<use xlink:href='#gpPt5' transform='translate(586.6,596.8) scale(4.50)' color='rgb(  0, 158, 115)'/>
	<use xlink:href='#gpPt5' transform='translate(591.6,590.4) scale(4.50)' color='rgb(  0, 158, 115)'/>
	<use xlink:href='#gpPt5' transform='translate(596.5,584.2) scale(4.50)' color='rgb(  0, 158, 115)'/>
	<use xlink:href='#gpPt5' transform='translate(601.5,578.0) scale(4.50)' color='rgb(  0, 158, 115)'/>
	<use xlink:href='#gpPt5' transform='translate(606.5,572.0) scale(4.50)' color='rgb(  0, 158, 115)'/>
	<use xlink:href='#gpPt5' transform='translate(611.4,566.2) scale(4.50)' color='rgb(  0, 158, 115)'/>
	<use xlink:href='#gpPt5' transform='translate(616.4,560.7) scale(4.50)' color='rgb(  0, 158, 115)'/>
	<use xlink:href='#gpPt5' transform='translate(621.4,555.4) scale(4.50)' color='rgb(  0, 158, 115)'/>
	<use xlink:href='#gpPt5' transform='translate(626.4,550.5) scale(4.50)' color='rgb(  0, 158, 115)'/>
	<use xlink:href='#gpPt5' transform='translate(631.3,545.9) scale(4.50)' color='rgb(  0, 158, 115)'/>
	<use xlink:href='#gpPt5' transform='translate(636.3,541.6) scale(4.50)' color='rgb(  0, 158, 115)'/>
	<use xlink:href='#gpPt5' transform='translate(641.3,537.8) scale(4.50)' color='rgb(  0, 158, 115)'/>
	<use xlink:href='#gpPt5' transform='translate(646.2,534.3) scale(4.50)' color='rgb(  0, 158, 115)'/>
	<use xlink:href='#gpPt5' transform='translate(651.2,531.3) scale(4.50)' color='rgb(  0, 158, 115)'/>
	<use xlink:href='#gpPt5' transform='translate(656.2,528.7) scale(4.50)' color='rgb(  0, 158, 115)'/>
	<use xlink:href='#gpPt5' transform='translate(661.1,526.5) scale(4.50)' color='rgb(  0, 158, 115)'/>
	<use xlink:href='#gpPt5' transform='translate(666.1,524.7) scale(4.50)' color='rgb(  0, 158, 115)'/>
	<use xlink:href='#gpPt5' transform='translate(671.1,523.4) scale(4.50)' color='rgb(  0, 158, 115)'/>
	<use xlink:href='#gpPt5' transform='translate(676.1,522.5) scale(4.50)' color='rgb(  0, 158, 115)'/>
	<use xlink:href='#gpPt5' transform='translate(681.0,521.9) scale(4.50)' color='rgb(  0, 158, 115)'/>
	<use xlink:href='#gpPt5' transform='translate(686.0,521.7) scale(4.50)' color='rgb(  0, 158, 115)'/>
	<use xlink:href='#gpPt5' transform='translate(648.3,462.1) scale(4.50)' color='rgb(  0, 158, 115)'/>
</g>
	</g>
<g fill="none" color="#FFFFFF" stroke="rgb(  0, 158, 115)" stroke-width="2.00" stroke-linecap="butt" stroke-linejoin="miter">
</g>
<g fill="none" color="black" stroke="currentColor" stroke-width="2.00" stroke-linecap="butt" stroke-linejoin="miter">
</g>
<g fill="none" color="black" stroke="black" stroke-width="1.00" stroke-linecap="butt" stroke-linejoin="miter">
</g>
<g fill="none" color="black" stroke="currentColor" stroke-width="1.00" stroke-linecap="butt" stroke-linejoin="miter">
	<path stroke='black'  d='M49.8,426.1 L49.8,681.0 L686.0,681.0 L686.0,426.1 L49.8,426.1 Z  '/></g>
<g fill="none" color="black" stroke="currentColor" stroke-width="1.00" stroke-linecap="butt" stroke-linejoin="miter">
</g>
<g fill="none" color="black" stroke="currentColor" stroke-width="1.00" stroke-linecap="butt" stroke-linejoin="miter">
	<path stroke='black'  d='M49.8,1035.0 L40.8,1035.0 M686.0,1035.0 L695.0,1035.0  '/>	<g transform="translate(32.5,1038.9)" stroke="none" fill="black" font-family="Arial" font-size="12.00"  text-anchor="end">
		<text><tspan font-family="Arial" >-0.3</tspan></text>
	</g>
</g>
<g fill="none" color="black" stroke="currentColor" stroke-width="1.00" stroke-linecap="butt" stroke-linejoin="miter">
	<path stroke='black'  d='M49.8,1006.7 L40.8,1006.7 M686.0,1006.7 L695.0,1006.7  '/>	<g transform="translate(32.5,1010.6)" stroke="none" fill="black" font-family="Arial" font-size="12.00"  text-anchor="end">
		<text><tspan font-family="Arial" >-0.25</tspan></text>
	</g>
</g>
<g fill="none" color="black" stroke="currentColor" stroke-width="1.00" stroke-linecap="butt" stroke-linejoin="miter">
	<path stroke='black'  d='M49.8,978.3 L40.8,978.3 M686.0,978.3 L695.0,978.3  '/>	<g transform="translate(32.5,982.2)" stroke="none" fill="black" font-family="Arial" font-size="12.00"  text-anchor="end">
		<text><tspan font-family="Arial" >-0.2</tspan></text>
	</g>
</g>
<g fill="none" color="black" stroke="currentColor" stroke-width="1.00" stroke-linecap="butt" stroke-linejoin="miter">
	<path stroke='black'  d='M49.8,950.0 L40.8,950.0 M686.0,950.0 L695.0,950.0  '/>	<g transform="translate(32.5,953.9)" stroke="none" fill="black" font-family="Arial" font-size="12.00"  text-anchor="end">
		<text><tspan font-family="Arial" >-0.15</tspan></text>
	</g>
</g>
<g fill="none" color="black" stroke="currentColor" stroke-width="1.00" stroke-linecap="butt" stroke-linejoin="miter">
	<path stroke='black'  d='M49.8,921.7 L40.8,921.7 M686.0,921.7 L695.0,921.7  '/>	<g transform="translate(32.5,925.6)" stroke="none" fill="black" font-family="Arial" font-size="12.00"  text-anchor="end">
		<text><tspan font-family="Arial" >-0.1</tspan></text>
	</g>
</g>
<g fill="none" color="black" stroke="currentColor" stroke-width="1.00" stroke-linecap="butt" stroke-linejoin="miter">
	<path stroke='black'  d='M49.8,893.3 L40.8,893.3 M686.0,893.3 L695.0,893.3  '/>	<g transform="translate(32.5,897.2)" stroke="none" fill="black" font-family="Arial" font-size="12.00"  text-anchor="end">
		<text><tspan font-family="Arial" >-0.05</tspan></text>
	</g>
</g>
<g fill="none" color="black" stroke="currentColor" stroke-width="1.00" stroke-linecap="butt" stroke-linejoin="miter">
	<path stroke='black'  d='M49.8,865.0 L40.8,865.0 M686.0,865.0 L695.0,865.0  '/>	<g transform="translate(32.5,868.9)" stroke="none" fill="black" font-family="Arial" font-size="12.00"  text-anchor="end">
		<text><tspan font-family="Arial" > 0</tspan></text>
	</g>
</g>
<g fill="none" color="black" stroke="currentColor" stroke-width="1.00" stroke-linecap="butt" stroke-linejoin="miter">
	<path stroke='black'  d='M49.8,836.7 L40.8,836.7 M686.0,836.7 L695.0,836.7  '/>	<g transform="translate(32.5,840.6)" stroke="none" fill="black" font-family="Arial" font-size="12.00"  text-anchor="end">
		<text><tspan font-family="Arial" > 0.05</tspan></text>
	</g>
</g>
<g fill="none" color="black" stroke="currentColor" stroke-width="1.00" stroke-linecap="butt" stroke-linejoin="miter">
	<path stroke='black'  d='M49.8,808.3 L40.8,808.3 M686.0,808.3 L695.0,808.3  '/>	<g transform="translate(32.5,812.2)" stroke="none" fill="black" font-family="Arial" font-size="12.00"  text-anchor="end">
		<text><tspan font-family="Arial" > 0.1</tspan></text>
	</g>
</g>
<g fill="none" color="black" stroke="currentColor" stroke-width="1.00" stroke-linecap="butt" stroke-linejoin="miter">
	<path stroke='black'  d='M49.8,780.0 L40.8,780.0 M686.0,780.0 L695.0,780.0  '/>	<g transform="translate(32.5,783.9)" stroke="none" fill="black" font-family="Arial" font-size="12.00"  text-anchor="end">
		<text><tspan font-family="Arial" > 0.15</tspan></text>
	</g>
</g>
<g fill="none" color="black" stroke="currentColor" stroke-width="1.00" stroke-linecap="butt" stroke-linejoin="miter">
	<path stroke='black'  d='M49.8,1035.0 L49.8,1044.0 M49.8,780.0 L49.8,771.0  '/>	<g transform="translate(49.8,1065.9)" stroke="none" fill="black" font-family="Arial" font-size="12.00"  text-anchor="middle">
		<text><tspan font-family="Arial" >-1</tspan></text>
	</g>
</g>
<g fill="none" color="black" stroke="currentColor" stroke-width="1.00" stroke-linecap="butt" stroke-linejoin="miter">
	<path stroke='black'  d='M208.9,1035.0 L208.9,1044.0 M208.9,780.0 L208.9,771.0  '/>	<g transform="translate(208.9,1065.9)" stroke="none" fill="black" font-family="Arial" font-size="12.00"  text-anchor="middle">
		<text><tspan font-family="Arial" >-0.5</tspan></text>
	</g>
</g>
<g fill="none" color="black" stroke="currentColor" stroke-width="1.00" stroke-linecap="butt" stroke-linejoin="miter">
	<path stroke='black'  d='M367.9,1035.0 L367.9,1044.0 M367.9,780.0 L367.9,771.0  '/>	<g transform="translate(367.9,1065.9)" stroke="none" fill="black" font-family="Arial" font-size="12.00"  text-anchor="middle">
		<text><tspan font-family="Arial" > 0</tspan></text>
	</g>
</g>
<g fill="none" color="black" stroke="currentColor" stroke-width="1.00" stroke-linecap="butt" stroke-linejoin="miter">
	<path stroke='black'  d='M527.0,1035.0 L527.0,1044.0 M527.0,780.0 L527.0,771.0  '/>	<g transform="translate(527.0,1065.9)" stroke="none" fill="black" font-family="Arial" font-size="12.00"  text-anchor="middle">
		<text><tspan font-family="Arial" > 0.5</tspan></text>
	</g>
</g>
<g fill="none" color="black" stroke="currentColor" stroke-width="1.00" stroke-linecap="butt" stroke-linejoin="miter">
	<path stroke='black'  d='M686.0,1035.0 L686.0,1044.0 M686.0,780.0 L686.0,771.0  '/>	<g transform="translate(686.0,1065.9)" stroke="none" fill="black" font-family="Arial" font-size="12.00"  text-anchor="middle">
		<text><tspan font-family="Arial" > 1</tspan></text>
	</g>
</g>
<g fill="none" color="black" stroke="currentColor" stroke-width="1.00" stroke-linecap="butt" stroke-linejoin="miter">
</g>
<g fill="none" color="black" stroke="currentColor" stroke-width="1.00" stroke-linecap="butt" stroke-linejoin="miter">
	<path stroke='black'  d='M49.8,780.0 L49.8,1035.0 L686.0,1035.0 L686.0,780.0 L49.8,780.0 Z  '/></g>
<g fill="none" color="black" stroke="currentColor" stroke-width="1.00" stroke-linecap="butt" stroke-linejoin="miter">
</g>
<g fill="none" color="black" stroke="currentColor" stroke-width="1.00" stroke-linecap="butt" stroke-linejoin="miter">
	<g transform="translate(367.9,756.9)" stroke="none" fill="black" font-family="Arial" font-size="12.00"  text-anchor="middle">
		<text><tspan font-family="Arial" >Integral</tspan></text>
	</g>
</g>
<g fill="none" color="black" stroke="currentColor" stroke-width="1.00" stroke-linecap="butt" stroke-linejoin="miter">
</g>
	<g id="gnuplot_plot_1c" ><title>ann integration</title>
<g fill="none" color="black" stroke="currentColor" stroke-width="1.00" stroke-linecap="butt" stroke-linejoin="miter">
	<g transform="translate(618.9,1002.9)" stroke="none" fill="black" font-family="Arial" font-size="12.00"  text-anchor="end">
		<text><tspan font-family="Arial" >ann integration</tspan></text>
	</g>
</g>
<g fill="none" color="black" stroke="currentColor" stroke-width="1.00" stroke-linecap="butt" stroke-linejoin="miter">
	<path stroke='rgb(148,   0, 211)'  d='M627.2,999.0 L669.4,999.0 M49.8,865.0 L54.8,861.9 L59.7,858.7 L64.7,855.6 L69.7,852.5 L74.7,849.5
		L79.6,846.6 L84.6,843.8 L89.6,841.1 L94.5,838.7 L99.5,836.4 L104.5,834.4 L109.4,832.7 L114.4,831.2
		L119.4,830.1 L124.4,829.4 L129.3,829.0 L134.3,829.0 L139.3,829.5 L144.2,830.3 L149.2,831.6 L154.2,833.4
		L159.1,835.6 L164.1,838.2 L169.1,841.3 L174.1,844.9 L179.0,848.9 L184.0,853.4 L189.0,858.2 L193.9,863.5
		L198.9,869.1 L203.9,875.1 L208.9,881.4 L213.8,887.9 L218.8,894.8 L223.8,901.8 L228.7,909.0 L233.7,916.3
		L238.7,923.7 L243.6,931.2 L248.6,938.6 L253.6,945.9 L258.6,953.2 L263.5,960.2 L268.5,967.1 L273.5,973.7
		L278.4,979.9 L283.4,985.8 L288.4,991.3 L293.3,996.3 L298.3,1000.8 L303.3,1004.8 L308.3,1008.2 L313.2,1011.0
		L318.2,1013.2 L323.2,1014.7 L328.1,1015.6 L333.1,1015.8 L338.1,1015.2 L343.0,1014.0 L348.0,1012.1 L353.0,1009.5
		L358.0,1006.3 L362.9,1002.4 L367.9,997.8 L372.9,992.7 L377.8,987.1 L382.8,980.9 L387.8,974.2 L392.8,967.1
		L397.7,959.7 L402.7,951.9 L407.7,943.8 L412.6,935.6 L417.6,927.2 L422.6,918.7 L427.5,910.1 L432.5,901.6
		L437.5,893.1 L442.5,884.8 L447.4,876.7 L452.4,868.8 L457.4,861.2 L462.3,853.9 L467.3,847.0 L472.3,840.5
		L477.2,834.4 L482.2,828.8 L487.2,823.7 L492.2,819.1 L497.1,815.1 L502.1,811.5 L507.1,808.6 L512.0,806.1
		L517.0,804.3 L522.0,803.0 L527.0,802.2 L531.9,801.9 L536.9,802.2 L541.9,803.0 L546.8,804.2 L551.8,805.9
		L556.8,808.0 L561.7,810.5 L566.7,813.4 L571.7,816.6 L576.7,820.1 L581.6,823.9 L586.6,827.9 L591.6,832.1
		L596.5,836.5 L601.5,841.0 L606.5,845.6 L611.4,850.3 L616.4,855.0 L621.4,859.7 L626.4,864.4 L631.3,869.0
		L636.3,873.5 L641.3,877.9 L646.2,882.2 L651.2,886.2 L656.2,890.1 L661.1,893.7 L666.1,897.1 L671.1,900.2
		L676.1,903.0 L681.0,905.6 L686.0,907.7  '/></g>
	</g>
	<g id="gnuplot_plot_2c" ><title>gsl integration</title>
<g fill="none" color="black" stroke="currentColor" stroke-width="1.00" stroke-linecap="butt" stroke-linejoin="miter">
	<g transform="translate(618.9,1020.9)" stroke="none" fill="black" font-family="Arial" font-size="12.00"  text-anchor="end">
		<text><tspan font-family="Arial" >gsl integration</tspan></text>
	</g>
</g>
<g fill="none" color="black" stroke="currentColor" stroke-width="1.00" stroke-linecap="butt" stroke-linejoin="miter">
	<use xlink:href='#gpPt5' transform='translate(49.8,865.0) scale(4.50)' color='rgb(  0, 158, 115)'/>
	<use xlink:href='#gpPt5' transform='translate(54.8,861.9) scale(4.50)' color='rgb(  0, 158, 115)'/>
	<use xlink:href='#gpPt5' transform='translate(59.7,858.7) scale(4.50)' color='rgb(  0, 158, 115)'/>
	<use xlink:href='#gpPt5' transform='translate(64.7,855.6) scale(4.50)' color='rgb(  0, 158, 115)'/>
	<use xlink:href='#gpPt5' transform='translate(69.7,852.5) scale(4.50)' color='rgb(  0, 158, 115)'/>
	<use xlink:href='#gpPt5' transform='translate(74.7,849.5) scale(4.50)' color='rgb(  0, 158, 115)'/>
	<use xlink:href='#gpPt5' transform='translate(79.6,846.6) scale(4.50)' color='rgb(  0, 158, 115)'/>
	<use xlink:href='#gpPt5' transform='translate(84.6,843.8) scale(4.50)' color='rgb(  0, 158, 115)'/>
	<use xlink:href='#gpPt5' transform='translate(89.6,841.2) scale(4.50)' color='rgb(  0, 158, 115)'/>
	<use xlink:href='#gpPt5' transform='translate(94.5,838.8) scale(4.50)' color='rgb(  0, 158, 115)'/>
	<use xlink:href='#gpPt5' transform='translate(99.5,836.6) scale(4.50)' color='rgb(  0, 158, 115)'/>
	<use xlink:href='#gpPt5' transform='translate(104.5,834.6) scale(4.50)' color='rgb(  0, 158, 115)'/>
	<use xlink:href='#gpPt5' transform='translate(109.4,832.9) scale(4.50)' color='rgb(  0, 158, 115)'/>
	<use xlink:href='#gpPt5' transform='translate(114.4,831.5) scale(4.50)' color='rgb(  0, 158, 115)'/>
	<use xlink:href='#gpPt5' transform='translate(119.4,830.4) scale(4.50)' color='rgb(  0, 158, 115)'/>
	<use xlink:href='#gpPt5' transform='translate(124.4,829.6) scale(4.50)' color='rgb(  0, 158, 115)'/>
	<use xlink:href='#gpPt5' transform='translate(129.3,829.2) scale(4.50)' color='rgb(  0, 158, 115)'/>
	<use xlink:href='#gpPt5' transform='translate(134.3,829.2) scale(4.50)' color='rgb(  0, 158, 115)'/>
	<use xlink:href='#gpPt5' transform='translate(139.3,829.7) scale(4.50)' color='rgb(  0, 158, 115)'/>
	<use xlink:href='#gpPt5' transform='translate(144.2,830.5) scale(4.50)' color='rgb(  0, 158, 115)'/>
	<use xlink:href='#gpPt5' transform='translate(149.2,831.8) scale(4.50)' color='rgb(  0, 158, 115)'/>
	<use xlink:href='#gpPt5' transform='translate(154.2,833.5) scale(4.50)' color='rgb(  0, 158, 115)'/>
	<use xlink:href='#gpPt5' transform='translate(159.1,835.7) scale(4.50)' color='rgb(  0, 158, 115)'/>
	<use xlink:href='#gpPt5' transform='translate(164.1,838.3) scale(4.50)' color='rgb(  0, 158, 115)'/>
	<use xlink:href='#gpPt5' transform='translate(169.1,841.4) scale(4.50)' color='rgb(  0, 158, 115)'/>
	<use xlink:href='#gpPt5' transform='translate(174.1,844.9) scale(4.50)' color='rgb(  0, 158, 115)'/>
	<use xlink:href='#gpPt5' transform='translate(179.0,848.9) scale(4.50)' color='rgb(  0, 158, 115)'/>
	<use xlink:href='#gpPt5' transform='translate(184.0,853.4) scale(4.50)' color='rgb(  0, 158, 115)'/>
	<use xlink:href='#gpPt5' transform='translate(189.0,858.2) scale(4.50)' color='rgb(  0, 158, 115)'/>
	<use xlink:href='#gpPt5' transform='translate(193.9,863.5) scale(4.50)' color='rgb(  0, 158, 115)'/>
	<use xlink:href='#gpPt5' transform='translate(198.9,869.1) scale(4.50)' color='rgb(  0, 158, 115)'/>
	<use xlink:href='#gpPt5' transform='translate(203.9,875.1) scale(4.50)' color='rgb(  0, 158, 115)'/>
	<use xlink:href='#gpPt5' transform='translate(208.9,881.4) scale(4.50)' color='rgb(  0, 158, 115)'/>
	<use xlink:href='#gpPt5' transform='translate(213.8,888.0) scale(4.50)' color='rgb(  0, 158, 115)'/>
	<use xlink:href='#gpPt5' transform='translate(218.8,894.8) scale(4.50)' color='rgb(  0, 158, 115)'/>
	<use xlink:href='#gpPt5' transform='translate(223.8,901.9) scale(4.50)' color='rgb(  0, 158, 115)'/>
	<use xlink:href='#gpPt5' transform='translate(228.7,909.1) scale(4.50)' color='rgb(  0, 158, 115)'/>
	<use xlink:href='#gpPt5' transform='translate(233.7,916.5) scale(4.50)' color='rgb(  0, 158, 115)'/>
	<use xlink:href='#gpPt5' transform='translate(238.7,923.9) scale(4.50)' color='rgb(  0, 158, 115)'/>
	<use xlink:href='#gpPt5' transform='translate(243.6,931.4) scale(4.50)' color='rgb(  0, 158, 115)'/>
	<use xlink:href='#gpPt5' transform='translate(248.6,938.8) scale(4.50)' color='rgb(  0, 158, 115)'/>
	<use xlink:href='#gpPt5' transform='translate(253.6,946.2) scale(4.50)' color='rgb(  0, 158, 115)'/>
	<use xlink:href='#gpPt5' transform='translate(258.6,953.5) scale(4.50)' color='rgb(  0, 158, 115)'/>
	<use xlink:href='#gpPt5' transform='translate(263.5,960.5) scale(4.50)' color='rgb(  0, 158, 115)'/>
	<use xlink:href='#gpPt5' transform='translate(268.5,967.4) scale(4.50)' color='rgb(  0, 158, 115)'/>
	<use xlink:href='#gpPt5' transform='translate(273.5,974.0) scale(4.50)' color='rgb(  0, 158, 115)'/>
	<use xlink:href='#gpPt5' transform='translate(278.4,980.2) scale(4.50)' color='rgb(  0, 158, 115)'/>
	<use xlink:href='#gpPt5' transform='translate(283.4,986.1) scale(4.50)' color='rgb(  0, 158, 115)'/>
	<use xlink:href='#gpPt5' transform='translate(288.4,991.5) scale(4.50)' color='rgb(  0, 158, 115)'/>
	<use xlink:href='#gpPt5' transform='translate(293.3,996.5) scale(4.50)' color='rgb(  0, 158, 115)'/>
	<use xlink:href='#gpPt5' transform='translate(298.3,1001.0) scale(4.50)' color='rgb(  0, 158, 115)'/>
	<use xlink:href='#gpPt5' transform='translate(303.3,1004.9) scale(4.50)' color='rgb(  0, 158, 115)'/>
	<use xlink:href='#gpPt5' transform='translate(308.3,1008.3) scale(4.50)' color='rgb(  0, 158, 115)'/>
	<use xlink:href='#gpPt5' transform='translate(313.2,1011.1) scale(4.50)' color='rgb(  0, 158, 115)'/>
	<use xlink:href='#gpPt5' transform='translate(318.2,1013.2) scale(4.50)' color='rgb(  0, 158, 115)'/>
	<use xlink:href='#gpPt5' transform='translate(323.2,1014.7) scale(4.50)' color='rgb(  0, 158, 115)'/>
	<use xlink:href='#gpPt5' transform='translate(328.1,1015.5) scale(4.50)' color='rgb(  0, 158, 115)'/>
	<use xlink:href='#gpPt5' transform='translate(333.1,1015.6) scale(4.50)' color='rgb(  0, 158, 115)'/>
	<use xlink:href='#gpPt5' transform='translate(338.1,1015.1) scale(4.50)' color='rgb(  0, 158, 115)'/>
	<use xlink:href='#gpPt5' transform='translate(343.0,1013.8) scale(4.50)' color='rgb(  0, 158, 115)'/>
	<use xlink:href='#gpPt5' transform='translate(348.0,1011.9) scale(4.50)' color='rgb(  0, 158, 115)'/>
	<use xlink:href='#gpPt5' transform='translate(353.0,1009.3) scale(4.50)' color='rgb(  0, 158, 115)'/>
	<use xlink:href='#gpPt5' transform='translate(358.0,1006.1) scale(4.50)' color='rgb(  0, 158, 115)'/>
	<use xlink:href='#gpPt5' transform='translate(362.9,1002.2) scale(4.50)' color='rgb(  0, 158, 115)'/>
	<use xlink:href='#gpPt5' transform='translate(367.9,997.7) scale(4.50)' color='rgb(  0, 158, 115)'/>
	<use xlink:href='#gpPt5' transform='translate(372.9,992.6) scale(4.50)' color='rgb(  0, 158, 115)'/>
	<use xlink:href='#gpPt5' transform='translate(377.8,987.0) scale(4.50)' color='rgb(  0, 158, 115)'/>
	<use xlink:href='#gpPt5' transform='translate(382.8,980.9) scale(4.50)' color='rgb(  0, 158, 115)'/>
	<use xlink:href='#gpPt5' transform='translate(387.8,974.3) scale(4.50)' color='rgb(  0, 158, 115)'/>
	<use xlink:href='#gpPt5' transform='translate(392.8,967.3) scale(4.50)' color='rgb(  0, 158, 115)'/>
	<use xlink:href='#gpPt5' transform='translate(397.7,959.9) scale(4.50)' color='rgb(  0, 158, 115)'/>
	<use xlink:href='#gpPt5' transform='translate(402.7,952.2) scale(4.50)' color='rgb(  0, 158, 115)'/>
	<use xlink:href='#gpPt5' transform='translate(407.7,944.2) scale(4.50)' color='rgb(  0, 158, 115)'/>
	<use xlink:href='#gpPt5' transform='translate(412.6,936.0) scale(4.50)' color='rgb(  0, 158, 115)'/>
	<use xlink:href='#gpPt5' transform='translate(417.6,927.6) scale(4.50)' color='rgb(  0, 158, 115)'/>
	<use xlink:href='#gpPt5' transform='translate(422.6,919.1) scale(4.50)' color='rgb(  0, 158, 115)'/>
	<use xlink:href='#gpPt5' transform='translate(427.5,910.6) scale(4.50)' color='rgb(  0, 158, 115)'/>
	<use xlink:href='#gpPt5' transform='translate(432.5,902.1) scale(4.50)' color='rgb(  0, 158, 115)'/>
	<use xlink:href='#gpPt5' transform='translate(437.5,893.6) scale(4.50)' color='rgb(  0, 158, 115)'/>
	<use xlink:href='#gpPt5' transform='translate(442.5,885.3) scale(4.50)' color='rgb(  0, 158, 115)'/>
	<use xlink:href='#gpPt5' transform='translate(447.4,877.1) scale(4.50)' color='rgb(  0, 158, 115)'/>
	<use xlink:href='#gpPt5' transform='translate(452.4,869.2) scale(4.50)' color='rgb(  0, 158, 115)'/>
	<use xlink:href='#gpPt5' transform='translate(457.4,861.5) scale(4.50)' color='rgb(  0, 158, 115)'/>
	<use xlink:href='#gpPt5' transform='translate(462.3,854.2) scale(4.50)' color='rgb(  0, 158, 115)'/>
	<use xlink:href='#gpPt5' transform='translate(467.3,847.2) scale(4.50)' color='rgb(  0, 158, 115)'/>
	<use xlink:href='#gpPt5' transform='translate(472.3,840.6) scale(4.50)' color='rgb(  0, 158, 115)'/>
	<use xlink:href='#gpPt5' transform='translate(477.2,834.4) scale(4.50)' color='rgb(  0, 158, 115)'/>
	<use xlink:href='#gpPt5' transform='translate(482.2,828.8) scale(4.50)' color='rgb(  0, 158, 115)'/>
	<use xlink:href='#gpPt5' transform='translate(487.2,823.6) scale(4.50)' color='rgb(  0, 158, 115)'/>
	<use xlink:href='#gpPt5' transform='translate(492.2,818.9) scale(4.50)' color='rgb(  0, 158, 115)'/>
	<use xlink:href='#gpPt5' transform='translate(497.1,814.8) scale(4.50)' color='rgb(  0, 158, 115)'/>
	<use xlink:href='#gpPt5' transform='translate(502.1,811.2) scale(4.50)' color='rgb(  0, 158, 115)'/>
	<use xlink:href='#gpPt5' transform='translate(507.1,808.2) scale(4.50)' color='rgb(  0, 158, 115)'/>
	<use xlink:href='#gpPt5' transform='translate(512.0,805.7) scale(4.50)' color='rgb(  0, 158, 115)'/>
	<use xlink:href='#gpPt5' transform='translate(517.0,803.8) scale(4.50)' color='rgb(  0, 158, 115)'/>
	<use xlink:href='#gpPt5' transform='translate(522.0,802.5) scale(4.50)' color='rgb(  0, 158, 115)'/>
	<use xlink:href='#gpPt5' transform='translate(527.0,801.8) scale(4.50)' color='rgb(  0, 158, 115)'/>
	<use xlink:href='#gpPt5' transform='translate(531.9,801.5) scale(4.50)' color='rgb(  0, 158, 115)'/>
	<use xlink:href='#gpPt5' transform='translate(536.9,801.9) scale(4.50)' color='rgb(  0, 158, 115)'/>
	<use xlink:href='#gpPt5' transform='translate(541.9,802.7) scale(4.50)' color='rgb(  0, 158, 115)'/>
	<use xlink:href='#gpPt5' transform='translate(546.8,804.0) scale(4.50)' color='rgb(  0, 158, 115)'/>
	<use xlink:href='#gpPt5' transform='translate(551.8,805.8) scale(4.50)' color='rgb(  0, 158, 115)'/>
	<use xlink:href='#gpPt5' transform='translate(556.8,808.0) scale(4.50)' color='rgb(  0, 158, 115)'/>
	<use xlink:href='#gpPt5' transform='translate(561.7,810.6) scale(4.50)' color='rgb(  0, 158, 115)'/>
	<use xlink:href='#gpPt5' transform='translate(566.7,813.5) scale(4.50)' color='rgb(  0, 158, 115)'/>
	<use xlink:href='#gpPt5' transform='translate(571.7,816.9) scale(4.50)' color='rgb(  0, 158, 115)'/>
	<use xlink:href='#gpPt5' transform='translate(576.7,820.5) scale(4.50)' color='rgb(  0, 158, 115)'/>
	<use xlink:href='#gpPt5' transform='translate(581.6,824.4) scale(4.50)' color='rgb(  0, 158, 115)'/>
	<use xlink:href='#gpPt5' transform='translate(586.6,828.5) scale(4.50)' color='rgb(  0, 158, 115)'/>
	<use xlink:href='#gpPt5' transform='translate(591.6,832.8) scale(4.50)' color='rgb(  0, 158, 115)'/>
	<use xlink:href='#gpPt5' transform='translate(596.5,837.2) scale(4.50)' color='rgb(  0, 158, 115)'/>
	<use xlink:href='#gpPt5' transform='translate(601.5,841.8) scale(4.50)' color='rgb(  0, 158, 115)'/>
	<use xlink:href='#gpPt5' transform='translate(606.5,846.4) scale(4.50)' color='rgb(  0, 158, 115)'/>
	<use xlink:href='#gpPt5' transform='translate(611.4,851.1) scale(4.50)' color='rgb(  0, 158, 115)'/>
	<use xlink:href='#gpPt5' transform='translate(616.4,855.8) scale(4.50)' color='rgb(  0, 158, 115)'/>
	<use xlink:href='#gpPt5' transform='translate(621.4,860.4) scale(4.50)' color='rgb(  0, 158, 115)'/>
	<use xlink:href='#gpPt5' transform='translate(626.4,865.0) scale(4.50)' color='rgb(  0, 158, 115)'/>
	<use xlink:href='#gpPt5' transform='translate(631.3,869.5) scale(4.50)' color='rgb(  0, 158, 115)'/>
	<use xlink:href='#gpPt5' transform='translate(636.3,873.9) scale(4.50)' color='rgb(  0, 158, 115)'/>
	<use xlink:href='#gpPt5' transform='translate(641.3,878.2) scale(4.50)' color='rgb(  0, 158, 115)'/>
	<use xlink:href='#gpPt5' transform='translate(646.2,882.3) scale(4.50)' color='rgb(  0, 158, 115)'/>
	<use xlink:href='#gpPt5' transform='translate(651.2,886.2) scale(4.50)' color='rgb(  0, 158, 115)'/>
	<use xlink:href='#gpPt5' transform='translate(656.2,889.9) scale(4.50)' color='rgb(  0, 158, 115)'/>
	<use xlink:href='#gpPt5' transform='translate(661.1,893.4) scale(4.50)' color='rgb(  0, 158, 115)'/>
	<use xlink:href='#gpPt5' transform='translate(666.1,896.7) scale(4.50)' color='rgb(  0, 158, 115)'/>
	<use xlink:href='#gpPt5' transform='translate(671.1,899.7) scale(4.50)' color='rgb(  0, 158, 115)'/>
	<use xlink:href='#gpPt5' transform='translate(676.1,902.5) scale(4.50)' color='rgb(  0, 158, 115)'/>
	<use xlink:href='#gpPt5' transform='translate(681.0,905.0) scale(4.50)' color='rgb(  0, 158, 115)'/>
	<use xlink:href='#gpPt5' transform='translate(686.0,907.2) scale(4.50)' color='rgb(  0, 158, 115)'/>
	<use xlink:href='#gpPt5' transform='translate(648.3,1017.0) scale(4.50)' color='rgb(  0, 158, 115)'/>
</g>
	</g>
<g fill="none" color="#FFFFFF" stroke="rgb(  0, 158, 115)" stroke-width="2.00" stroke-linecap="butt" stroke-linejoin="miter">
</g>
<g fill="none" color="black" stroke="currentColor" stroke-width="2.00" stroke-linecap="butt" stroke-linejoin="miter">
</g>
<g fill="none" color="black" stroke="black" stroke-width="1.00" stroke-linecap="butt" stroke-linejoin="miter">
</g>
<g fill="none" color="black" stroke="currentColor" stroke-width="1.00" stroke-linecap="butt" stroke-linejoin="miter">
	<path stroke='black'  d='M49.8,780.0 L49.8,1035.0 L686.0,1035.0 L686.0,780.0 L49.8,780.0 Z  '/></g>
<g fill="none" color="black" stroke="currentColor" stroke-width="1.00" stroke-linecap="butt" stroke-linejoin="miter">
</g>
</g>
</svg>

